%!PS-Adobe-2.0 EPSF-2.0
%%Title: 1arch.eps
%%Creator: fig2dev Version 3.2 Patchlevel 3d
%%CreationDate: Tue Apr  1 18:10:43 2003
%%For: vera@eldorado (OliverErdmann)
%%BoundingBox: 0 0 665 450
%%Magnification: 1.0000
%%EndComments
/$F2psDict 200 dict def
$F2psDict begin
$F2psDict /mtrx matrix put
/col-1 {0 setgray} bind def
/col0 {0.000 0.000 0.000 srgb} bind def
/col1 {0.000 0.000 1.000 srgb} bind def
/col2 {0.000 1.000 0.000 srgb} bind def
/col3 {0.000 1.000 1.000 srgb} bind def
/col4 {1.000 0.000 0.000 srgb} bind def
/col5 {1.000 0.000 1.000 srgb} bind def
/col6 {1.000 1.000 0.000 srgb} bind def
/col7 {1.000 1.000 1.000 srgb} bind def
/col8 {0.000 0.000 0.560 srgb} bind def
/col9 {0.000 0.000 0.690 srgb} bind def
/col10 {0.000 0.000 0.820 srgb} bind def
/col11 {0.530 0.810 1.000 srgb} bind def
/col12 {0.000 0.560 0.000 srgb} bind def
/col13 {0.000 0.690 0.000 srgb} bind def
/col14 {0.000 0.820 0.000 srgb} bind def
/col15 {0.000 0.560 0.560 srgb} bind def
/col16 {0.000 0.690 0.690 srgb} bind def
/col17 {0.000 0.820 0.820 srgb} bind def
/col18 {0.560 0.000 0.000 srgb} bind def
/col19 {0.690 0.000 0.000 srgb} bind def
/col20 {0.820 0.000 0.000 srgb} bind def
/col21 {0.560 0.000 0.560 srgb} bind def
/col22 {0.690 0.000 0.690 srgb} bind def
/col23 {0.820 0.000 0.820 srgb} bind def
/col24 {0.500 0.190 0.000 srgb} bind def
/col25 {0.630 0.250 0.000 srgb} bind def
/col26 {0.750 0.380 0.000 srgb} bind def
/col27 {1.000 0.500 0.500 srgb} bind def
/col28 {1.000 0.630 0.630 srgb} bind def
/col29 {1.000 0.750 0.750 srgb} bind def
/col30 {1.000 0.880 0.880 srgb} bind def
/col31 {1.000 0.840 0.000 srgb} bind def

end
save
newpath 0 450 moveto 0 0 lineto 665 0 lineto 665 450 lineto closepath clip newpath
-55.9 485.5 translate
1 -1 scale

/cp {closepath} bind def
/ef {eofill} bind def
/gr {grestore} bind def
/gs {gsave} bind def
/sa {save} bind def
/rs {restore} bind def
/l {lineto} bind def
/m {moveto} bind def
/rm {rmoveto} bind def
/n {newpath} bind def
/s {stroke} bind def
/sh {show} bind def
/slc {setlinecap} bind def
/slj {setlinejoin} bind def
/slw {setlinewidth} bind def
/srgb {setrgbcolor} bind def
/rot {rotate} bind def
/sc {scale} bind def
/sd {setdash} bind def
/ff {findfont} bind def
/sf {setfont} bind def
/scf {scalefont} bind def
/sw {stringwidth} bind def
/tr {translate} bind def
/tnt {dup dup currentrgbcolor
  4 -2 roll dup 1 exch sub 3 -1 roll mul add
  4 -2 roll dup 1 exch sub 3 -1 roll mul add
  4 -2 roll dup 1 exch sub 3 -1 roll mul add srgb}
  bind def
/shd {dup dup currentrgbcolor 4 -2 roll mul 4 -2 roll mul
  4 -2 roll mul srgb} bind def
/reencdict 12 dict def /ReEncode { reencdict begin
/newcodesandnames exch def /newfontname exch def /basefontname exch def
/basefontdict basefontname findfont def /newfont basefontdict maxlength dict def
basefontdict { exch dup /FID ne { dup /Encoding eq
{ exch dup length array copy newfont 3 1 roll put }
{ exch newfont 3 1 roll put } ifelse } { pop pop } ifelse } forall
newfont /FontName newfontname put newcodesandnames aload pop
128 1 255 { newfont /Encoding get exch /.notdef put } for
newcodesandnames length 2 idiv { newfont /Encoding get 3 1 roll put } repeat
newfontname newfont definefont pop end } def
/isovec [
8#055 /minus 8#200 /grave 8#201 /acute 8#202 /circumflex 8#203 /tilde
8#204 /macron 8#205 /breve 8#206 /dotaccent 8#207 /dieresis
8#210 /ring 8#211 /cedilla 8#212 /hungarumlaut 8#213 /ogonek 8#214 /caron
8#220 /dotlessi 8#230 /oe 8#231 /OE
8#240 /space 8#241 /exclamdown 8#242 /cent 8#243 /sterling
8#244 /currency 8#245 /yen 8#246 /brokenbar 8#247 /section 8#250 /dieresis
8#251 /copyright 8#252 /ordfeminine 8#253 /guillemotleft 8#254 /logicalnot
8#255 /hyphen 8#256 /registered 8#257 /macron 8#260 /degree 8#261 /plusminus
8#262 /twosuperior 8#263 /threesuperior 8#264 /acute 8#265 /mu 8#266 /paragraph
8#267 /periodcentered 8#270 /cedilla 8#271 /onesuperior 8#272 /ordmasculine
8#273 /guillemotright 8#274 /onequarter 8#275 /onehalf
8#276 /threequarters 8#277 /questiondown 8#300 /Agrave 8#301 /Aacute
8#302 /Acircumflex 8#303 /Atilde 8#304 /Adieresis 8#305 /Aring
8#306 /AE 8#307 /Ccedilla 8#310 /Egrave 8#311 /Eacute
8#312 /Ecircumflex 8#313 /Edieresis 8#314 /Igrave 8#315 /Iacute
8#316 /Icircumflex 8#317 /Idieresis 8#320 /Eth 8#321 /Ntilde 8#322 /Ograve
8#323 /Oacute 8#324 /Ocircumflex 8#325 /Otilde 8#326 /Odieresis 8#327 /multiply
8#330 /Oslash 8#331 /Ugrave 8#332 /Uacute 8#333 /Ucircumflex
8#334 /Udieresis 8#335 /Yacute 8#336 /Thorn 8#337 /germandbls 8#340 /agrave
8#341 /aacute 8#342 /acircumflex 8#343 /atilde 8#344 /adieresis 8#345 /aring
8#346 /ae 8#347 /ccedilla 8#350 /egrave 8#351 /eacute
8#352 /ecircumflex 8#353 /edieresis 8#354 /igrave 8#355 /iacute
8#356 /icircumflex 8#357 /idieresis 8#360 /eth 8#361 /ntilde 8#362 /ograve
8#363 /oacute 8#364 /ocircumflex 8#365 /otilde 8#366 /odieresis 8#367 /divide
8#370 /oslash 8#371 /ugrave 8#372 /uacute 8#373 /ucircumflex
8#374 /udieresis 8#375 /yacute 8#376 /thorn 8#377 /ydieresis] def
/Times-Roman /Times-Roman-iso isovec ReEncode
/Times-Italic /Times-Italic-iso isovec ReEncode
/$F2psBegin {$F2psDict begin /$F2psEnteredState save def} def
/$F2psEnd {$F2psEnteredState restore end} def

$F2psBegin
10 setmiterlimit
0 slj 0 slc
 0.06299 0.06299 sc
%
% Fig objects follow
%
% Polyline
7.500 slw
n 8280 5445 m 11430 5445 l 11430 6525 l 8280 6525 l
 cp gs col0 s gr 
% Polyline
n 5670 5445 m 7560 5445 l 7560 6525 l 5670 6525 l
 cp gs col0 s gr 
% Polyline
15.000 slw
n 6570 5265 m
 6570 5445 l gs col0 s gr 
% Polyline
n 9990 5265 m
 9990 5445 l gs col0 s gr 
% Polyline
n 3870 5265 m
 3870 5445 l gs col0 s gr 
% Polyline
7.500 slw
n 2085 6885 m 1980 6885 1980 7590 105 arcto 4 {pop} repeat
  1980 7695 5025 7695 105 arcto 4 {pop} repeat
  5130 7695 5130 6990 105 arcto 4 {pop} repeat
  5130 6885 2085 6885 105 arcto 4 {pop} repeat
 cp gs col0 s gr 
% Polyline
n 1980 5445 m 5130 5445 l 5130 6525 l 1980 6525 l
 cp gs col0 s gr 
% Polyline
15.000 slw
gs  clippath
3832 6510 m 3727 6510 l 3727 6682 l 3780 6547 l 3832 6682 l cp
eoclip
n 3780 6525 m
 3780 6885 l gs col0 s gr gr

% arrowhead
n 3832 6682 m 3780 6547 l 3727 6682 l 3832 6682 l  cp gs 0.00 setgray ef gr  col0 s
/Times-Roman-iso ff 180.00 scf sf
2250 5715 m
gs 1 -1 sc (interface FontSource) col0 sh gr
/Times-Italic-iso ff 180.00 scf sf
2160 7245 m
gs 1 -1 sc (FontSource implementation) col0 sh gr
/Times-Italic-iso ff 180.00 scf sf
2160 7425 m
gs 1 -1 sc (eg. BDF font, TTF font) col0 sh gr
/Times-Roman-iso ff 180.00 scf sf
8460 5715 m
gs 1 -1 sc (UFFWriter) col0 sh gr
/Times-Roman-iso ff 180.00 scf sf
5850 5715 m
gs 1 -1 sc (ProfileManager) col0 sh gr
% Polyline
7.500 slw
n 2160 585 m 5130 585 l 5130 2115 l 2160 2115 l
 cp gs col0 s gr 
% Polyline
n 6120 585 m 9090 585 l 9090 2115 l 6120 2115 l
 cp gs col0 s gr 
% Polyline
n 3420 2835 m 8640 2835 l 8640 3195 l 3420 3195 l
 cp gs col0 s gr 
% Polyline
n 3060 1845 m 5130 1845 l 5130 2115 l 3060 2115 l
 cp gs col0 s gr 
% Polyline
15.000 slw
gs  clippath
4836 2884 m 4906 2805 l 4777 2692 l 4844 2821 l 4708 2770 l cp
eoclip
n 4050 2115 m
 4860 2835 l gs col0 s gr gr

% arrowhead
n 4708 2770 m 4844 2821 l 4777 2692 l 4708 2770 l  cp gs 0.00 setgray ef gr  col0 s
% Polyline
gs  clippath
6522 2808 m 6596 2882 l 6717 2761 l 6585 2820 l 6643 2687 l cp
eoclip
n 7305 2098 m
 6570 2835 l gs col0 s gr gr

% arrowhead
n 6643 2687 m 6585 2820 l 6717 2761 l 6643 2687 l  cp gs 0.00 setgray ef gr  col0 s
% Polyline
7.500 slw
n 1980 3465 m 11430 3465 l 11430 5265 l 1980 5265 l
 cp gs col0 s gr 
% Polyline
n 1980 4905 m 4140 4905 l 4140 4005 l 1980 4005 l
 cp gs col0 s gr 
% Polyline
n 7470 3465 m 8640 3465 l 8640 4365 l 7470 4365 l
 cp gs col0 s gr 
% Polyline
15.000 slw
n 8010 3195 m
 8010 3465 l gs col0 s gr 
% Polyline
7.500 slw
gs  clippath
1815 4410 m 1815 4320 l 1636 4320 l 1786 4365 l 1636 4410 l cp
eoclip
n 900 4365 m
 1800 4365 l gs col0 s gr gr

% arrowhead
n 1636 4410 m 1786 4365 l 1636 4320 l 1636 4410 l  cp gs 0.00 setgray ef gr  col0 s
/Times-Roman-iso ff 180.00 scf sf
5670 3735 m
gs 1 -1 sc (Controller) col0 sh gr
/Times-Roman-iso ff 180.00 scf sf
2340 945 m
gs 1 -1 sc (Application) col0 sh gr
/Times-Roman-iso ff 180.00 scf sf
3240 2025 m
gs 1 -1 sc (MVC-Controller) col0 sh gr
/Times-Roman-iso ff 180.00 scf sf
5040 3105 m
gs 1 -1 sc (interface UserInterface) col0 sh gr
/Times-Roman-iso ff 180.00 scf sf
6300 945 m
gs 1 -1 sc (CmdLine) col0 sh gr
/Times-Italic-iso ff 180.00 scf sf
2340 1485 m
gs 1 -1 sc (GUI-Interface) col0 sh gr
/Times-Italic-iso ff 180.00 scf sf
6300 1125 m
gs 1 -1 sc (implements UserInterface) col0 sh gr
/Times-Italic-iso ff 180.00 scf sf
2340 1125 m
gs 1 -1 sc (implements UserInterface) col0 sh gr
/Times-Italic-iso ff 180.00 scf sf
6300 1485 m
gs 1 -1 sc (Command-line interface) col0 sh gr
/Times-Roman-iso ff 180.00 scf sf
2070 4185 m
gs 1 -1 sc (main\(\):) col0 sh gr
/Times-Italic-iso ff 180.00 scf sf
2070 4635 m
gs 1 -1 sc (register itself) col0 sh gr
/Times-Italic-iso ff 180.00 scf sf
2070 4860 m
gs 1 -1 sc (init) col0 sh gr
/Times-Italic-iso ff 180.00 scf sf
2070 4410 m
gs 1 -1 sc (instantiate 1 UI) col0 sh gr
/Times-Roman-iso ff 180.00 scf sf
7560 3645 m
gs 1 -1 sc (UI instance) col0 sh gr
/Times-Roman-iso ff 180.00 scf sf
7560 3870 m
gs 1 -1 sc (UI callback) col0 sh gr
/Times-Roman-iso ff 180.00 scf sf
7560 4095 m
gs 1 -1 sc (UI call) col0 sh gr
/Times-Italic-iso ff 180.00 scf sf
900 4095 m
gs 1 -1 sc (interactive/) col0 sh gr
/Times-Italic-iso ff 180.00 scf sf
900 4320 m
gs 1 -1 sc (batch job) col0 sh gr
$F2psEnd
rs
