\contentsline {section}{\numberline {1}Preface}{1}
\contentsline {subsection}{\numberline {1.1}Encoding}{1}
\contentsline {subsection}{\numberline {1.2}Naming the PDB}{1}
\contentsline {section}{\numberline {2}The PDB format}{2}
\contentsline {subsection}{\numberline {2.1}Common Part}{2}
\contentsline {subsection}{\numberline {2.2}Range Part}{3}
\contentsline {subsection}{\numberline {2.3}PDB records}{3}
\contentsline {section}{\numberline {3}Resources}{3}
