\relax 
\@writefile{toc}{\contentsline {section}{\numberline {1}Preface}{1}}
\@writefile{toc}{\contentsline {subsection}{\numberline {1.1}Encoding}{1}}
\@writefile{toc}{\contentsline {subsection}{\numberline {1.2}Naming the PDB}{1}}
\@writefile{toc}{\contentsline {section}{\numberline {2}The PDB format}{2}}
\@writefile{toc}{\contentsline {subsection}{\numberline {2.1}Common Part}{2}}
\@writefile{toc}{\contentsline {subsection}{\numberline {2.2}Range Part}{3}}
\@writefile{toc}{\contentsline {subsection}{\numberline {2.3}PDB records}{3}}
\@writefile{toc}{\contentsline {section}{\numberline {3}Resources}{3}}
